id,created_at,email,updated_at
10,2014-11-30T16:43:56.895Z,Dixie3259@yahoo.com,2017-11-1T15:05:04.112Z
102,2015-04-25T19:09:54.501Z,francoistoni@hotmail.com,2017-11-1T15:05:04.112Z
103,2014-11-30T17:03:13.071Z,roth.nikki10@yahoo.com,2017-11-1T15:05:04.112Z
104,2014-12-01T22:58:02.223Z,jstanl26@students.kennesaw.edu,2017-11-1T15:05:04.112Z
105,2014-12-03T03:46:23.535Z,tbyrom@students.kennesaw.edu,2017-11-1T15:05:04.112Z
106,2014-11-30T21:49:16.845Z,jkim145@students.kennesaw.edu,2017-11-1T15:05:04.112Z
107,2015-03-06T17:02:16.362Z,tcorbin@jcsd.us,2017-11-1T15:05:04.112Z
108,2015-11-02T18:48:09.668Z,madison.gentry16@gmail.com,2017-11-1T15:05:04.112Z
11,2014-12-01T21:56:10.709Z,helenalofton@gmail.com,2017-11-1T15:05:04.112Z
110,2014-08-25T20:04:17.407Z,kvega@brevardzoo.org,2017-11-1T15:05:04.112Z
111,2014-11-30T18:03:27.065Z,kbrook@students.kennesaw.edu,2017-11-1T15:05:04.112Z
112,2015-11-02T02:42:15.289Z,cgum94@yahoo.com,2017-11-1T15:05:04.112Z
113,2014-12-01T23:04:11.376Z,stacey.mai@gmail.com,2017-11-1T15:05:04.112Z
114,2014-07-10T12:26:33.716Z,reefrelief@gmail.com,2017-11-1T15:05:04.112Z
115,2014-12-03T19:17:03.028Z,Spenserat05@yahoo.com,2017-11-1T15:05:04.112Z
116,2014-06-30T19:40:15.661Z,alicia.persaud@gmail.com,2017-11-1T15:05:04.112Z
117,2014-07-10T09:58:49.959Z,jabot@fredonia.edu,2017-11-1T15:05:04.112Z
118,2015-04-20T20:44:55.157Z,alexkennard13@gmail.com,2017-11-1T15:05:04.112Z
119,2015-04-21T21:05:23.593Z,natalie.a.willmschen@gmail.com,2017-11-1T15:05:04.112Z
12,2015-11-02T03:08:00.057Z,cljohnson4795@gmail.com,2017-11-1T15:05:04.112Z
120,2014-11-12T19:05:03.526Z,czugmeyer@sonoraninstitute.org,2017-11-1T15:05:04.112Z
121,2015-11-03T02:44:12.631Z,troggow@students.kennesaw.edu,2017-11-1T15:05:04.112Z
122,2015-10-01T01:25:31.097Z,terry_dakota@yahoo.com,2017-11-1T15:05:04.112Z
123,2015-04-28T23:47:48.537Z,dmack10@students.kennesaw.edu,2017-11-1T15:05:04.112Z
124,2014-12-02T06:54:19.503Z,Jamila2055@gmail.com,2017-11-1T15:05:04.112Z
125,2015-11-02T19:19:38.025Z,surban1@students.kennesaw.edu,2017-11-1T15:05:04.112Z
127,2014-12-02T06:16:23.139Z,jfolker10@gatech.edu,2017-11-1T15:05:04.112Z
128,2014-12-03T01:08:09.486Z,vicki.selleck@yahoo.com,2017-11-1T15:05:04.112Z
129,2014-12-02T22:26:31.804Z,aaronx94@gmail.com,2017-11-1T15:05:04.112Z
13,2015-04-24T20:18:03.711Z,cvernon4@students.kennesaw.edu,2017-11-1T15:05:04.112Z
130,2015-11-02T01:01:35.906Z,laura-2526@hotmail.com,2017-11-1T15:05:04.112Z
131,2015-11-02T21:45:00.153Z,sammy062192@yahoo.com,2017-11-1T15:05:04.112Z
132,2015-11-01T20:25:46.673Z,apannel5@students.kennesaw.edu,2017-11-1T15:05:04.112Z
134,2014-12-02T14:59:43.349Z,nielsen.kory@yahoo.com,2017-11-1T15:05:04.112Z
136,2015-11-02T16:22:27.374Z,hhope3@students.kennesaw.edu,2017-11-1T15:05:04.112Z
137,2014-07-03T17:08:47.161Z,aethornton@ucsd.edu,2017-11-1T15:05:04.112Z
138,2014-11-30T01:59:47.776Z,ashley_marie5683@yahoo.com,2017-11-1T15:05:04.112Z
139,2015-05-05T02:14:39.986Z,follettbrandon1@gmail.com,2017-11-1T15:05:04.112Z
14,2015-04-16T15:48:27.227Z,ayers@vims.edu,2017-11-1T15:05:04.112Z
140,2014-12-02T23:38:14.846Z,rlautur1@gmail.com,2017-11-1T15:05:04.112Z
141,2015-11-02T22:29:45.511Z,whitneypeek@gmail.com,2017-11-1T15:05:04.112Z
143,2015-11-03T03:18:22.045Z,tcoope25@students.kennesaw.edu,2017-11-1T15:05:04.112Z
144,2014-07-02T02:26:10.699Z,dfbarnes@ucsd.edu,2017-11-1T15:05:04.112Z
145,2015-05-29T21:05:54.998Z,slebron@sdcoastkeeper.org,2017-11-1T15:05:04.112Z
146,2015-11-01T23:43:41.232Z,kmaginni@students.kennesaw.edu,2017-11-1T15:05:04.112Z
147,2014-12-02T14:28:40.817Z,ecw_2013@rocketmail.com,2017-11-1T15:05:04.112Z
148,2014-07-04T17:07:53.345Z,kc1256@nova.edu,2017-11-1T15:05:04.112Z
149,2015-12-07T17:37:11.792Z,richburgm@santarosa.k12.fl.us,2017-11-1T15:05:04.112Z
15,2015-04-24T20:50:59.298Z,jordanbrittain14@yahoo.com,2017-11-1T15:05:04.112Z
150,2014-06-30T15:13:53.694Z,robert.persaud@gmail.com,2017-11-1T15:05:04.112Z
151,2014-12-03T18:23:10.116Z,abohann3@students.kennesaw.edu,2017-11-1T15:05:04.112Z
152,2014-12-03T16:40:06.179Z,mwilki18@students.kennesaw.edu,2017-11-1T15:05:04.112Z
154,2014-12-01T23:30:55.188Z,keke922001@gmail.com,2017-11-1T15:05:04.112Z
155,2014-11-30T20:05:59.718Z,neysha.cuevas@gmail.com,2017-11-1T15:05:04.112Z
156,2015-11-01T23:03:18.405Z,hgunter2@students.kennesaw.edu,2017-11-1T15:05:04.112Z
157,2014-11-30T16:51:19.258Z,rnjsu1990@gmail.com,2017-11-1T15:05:04.112Z
158,2014-07-04T18:52:35.127Z,thomas@beeq.co,2017-11-1T15:05:04.112Z
159,2015-04-20T16:13:55.952Z,KatieBethM93@gmail.com,2017-11-1T15:05:04.112Z
16,2014-12-02T17:28:33.495Z,Tblosso1@students.kennesaw.edu,2017-11-1T15:05:04.112Z
160,2014-12-02T00:45:17.648Z,lsteve23@students.kennesaw.edu,2017-11-1T15:05:04.112Z
161,2015-04-21T04:47:31.935Z,hshrader@students.kennesaw.edu,2017-11-1T15:05:04.112Z
162,2015-04-25T21:21:21.265Z,joshua.sumperl@gmail.com,2017-11-1T15:05:04.112Z
163,2014-07-14T22:10:18.308Z,ewilkening1@email.arizona.edu,2017-11-1T15:05:04.112Z
164,2015-11-03T02:09:27.999Z,ncarnegi@students.kennesaw.edu,2017-11-1T15:05:04.112Z
165,2014-11-30T16:42:24.771Z,dixie3259@yahoo.com,2017-11-1T15:05:04.112Z
166,2014-12-03T17:50:23.745Z,ash.bee55@gmail.com,2017-11-1T15:05:04.112Z
167,2015-11-01T19:47:36.795Z,michellestecker1@gmail.com,2017-11-1T15:05:04.112Z
168,2014-09-05T19:08:06.745Z,sdabdoub6@gatech.edu,2017-11-1T15:05:04.112Z
169,2015-12-16T13:25:58.361Z,francesca.m.menendez@gmail.com,2017-11-1T15:05:04.112Z
170,2014-07-03T00:03:55.429Z,lisagunnadams@gmail.com,2017-11-1T15:05:04.112Z
171,2014-12-02T19:00:26.253Z,cking@frostscience.org,2017-11-1T15:05:04.112Z
173,2014-11-30T16:30:32.031Z,cwalkey@students.kennesaw.edu,2017-11-1T15:05:04.112Z
175,2015-04-20T18:32:49.507Z,ann.nemeck@cobbk12.org,2017-11-1T15:05:04.112Z
176,2014-12-01T15:49:53.177Z,wahwahgirlkam@gmail.com,2017-11-1T15:05:04.112Z
177,2014-06-30T09:12:54.080Z,splassh.data@gmail.com,2017-11-1T15:05:04.112Z
178,2015-03-22T16:36:28.186Z,naturesavannah@gmail.com,2017-11-1T15:05:04.112Z
179,2015-11-02T21:57:25.161Z,lweltch@gmail.com,2017-11-1T15:05:04.112Z
18,2014-11-30T01:37:17.945Z,rford20@students.kennesaw.edu,2017-11-1T15:05:04.112Z
181,2014-06-30T10:16:58.270Z,ladams@kennesaw.edu,2017-11-1T15:05:04.112Z
182,2015-10-29T17:24:38.917Z,salim@salim.com,2017-11-1T15:05:04.112Z
183,2014-12-03T02:51:05.428Z,phillipgmason@yahoo.com,2017-11-1T15:05:04.112Z
184,2014-07-22T00:55:42.525Z,miriam.sutton@carteretk12.org,2017-11-1T15:05:04.112Z
19,2015-04-23T19:24:55.995Z,kendallburrus@bellsouth.net,2017-11-1T15:05:04.112Z
21,2015-04-23T18:08:12.081Z,nbrough2@students.kennesaw.edu,2017-11-1T15:05:04.112Z
22,2015-03-03T20:18:40.033Z,abbey@secoora.org,2017-11-1T15:05:04.112Z
23,2015-11-02T21:57:15.418Z,waylortolf@yahoo.com,2017-11-1T15:05:04.112Z
24,2015-11-03T00:05:00.100Z,rlstagg@comcast.net,2017-11-1T15:05:04.112Z
25,2014-12-01T19:18:17.473Z,jmulli21@students.kennesaw.edu,2017-11-1T15:05:04.112Z
26,2015-11-03T02:25:52.120Z,yaguirre@students.kennesaw.edu,2017-11-1T15:05:04.112Z
27,2014-07-16T19:28:21.309Z,d3williams@ucsd.edu,2017-11-1T15:05:04.112Z
28,2014-12-01T03:12:39.409Z,jade_peters@yahoo.com,2017-11-1T15:05:04.112Z
29,2014-12-02T03:38:39.522Z,eguthri2@students.kennesaw.edu,2017-11-1T15:05:04.112Z
3,2014-07-01T22:19:02.569Z,hoocaca@yahoo.com,2017-11-1T15:05:04.112Z
30,2014-07-04T13:29:44.511Z,abbey@Secoora.org,2017-11-1T15:05:04.112Z
31,2014-09-26T03:01:08.662Z,evan.cahill@gatech.edu,2017-11-1T15:05:04.112Z
32,2015-04-25T18:59:57.707Z,mdsnjane521@me.com,2017-11-1T15:05:04.112Z
33,2015-04-14T23:13:27.782Z,sci7724sp15@gmail.com,2017-11-1T15:05:04.112Z
34,2015-04-21T14:30:40.353Z,chemsherman@yahoo.com,2017-11-1T15:05:04.112Z
35,2014-07-03T17:02:00.592Z,thornton.alex@gmail.com,2017-11-1T15:05:04.112Z
37,2014-11-30T01:48:16.544Z,laura_gamezc@hotmail.com,2017-11-1T15:05:04.112Z
38,2014-07-15T22:02:10.391Z,j.clements@unb.ca,2017-11-1T15:05:04.112Z
39,2015-04-16T18:11:54.828Z,cody.bliss@dep.state.fl.us,2017-11-1T15:05:04.112Z
4,2014-12-03T02:58:58.328Z,deathbytorture@gmail.com,2017-11-1T15:05:04.112Z
41,2015-11-02T22:41:40.737Z,tphill39@students.kennesaw.edu,2017-11-1T15:05:04.112Z
42,2015-05-05T00:49:02.833Z,bsorrel3@students.kennesaw.edu,2017-11-1T15:05:04.112Z
44,2015-04-25T19:46:11.079Z,trishvilhena@yahoo.com,2017-11-1T15:05:04.112Z
45,2015-12-16T21:23:31.041Z,amoheather@yahoo.com,2017-11-1T15:05:04.112Z
47,2015-04-25T21:17:54.913Z,emksu84@gmail.com,2017-11-1T15:05:04.112Z
48,2015-11-02T19:37:37.652Z,kelsayymontayy@gmail.com,2017-11-1T15:05:04.112Z
49,2014-07-14T21:25:26.909Z,vanessa@gue.com,2017-11-1T15:05:04.112Z
50,2015-11-02T14:15:58.081Z,amalone7@students.kennesaw.edu,2017-11-1T15:05:04.112Z
51,2014-12-02T02:51:50.877Z,jessica.tillman27@gmail.com,2017-11-1T15:05:04.112Z
52,2014-11-30T03:24:00.078Z,jordanharrington93@gnail.com,2017-11-1T15:05:04.112Z
6,2015-11-01T19:55:57.033Z,morganshepherd22@gmail.com,2017-11-1T15:05:04.112Z
7,2015-11-02T00:19:30.853Z,dorojenb@yahoo.com,2017-11-1T15:05:04.112Z
8,2014-07-12T13:17:59.743Z,oceanscienceguy@gmail.com,2017-11-1T15:05:04.112Z
9,2014-11-30T15:47:46.895Z,twilso96@students.kennesaw.edu,2017-11-1T15:05:04.112Z